RAL_test_with_two_seqr_V2.0/RAL_test_with_two_seqr_V2.0/tb/sim/dump.vcd
$date
	Wed Sep 11 12:53:57 2024
$end
$version
	QuestaSim Version 2024.1
$end
$timescale
	1ns
$end

$scope module tb_top $end
$var reg 1 ! clk $end
$var reg 1 " reset_n $end

$scope module DUT $end
$var wire 1 # clk $end
$var wire 1 $ reset_n $end
$var wire 1 % i_wr_en $end
$var wire 1 & i_rd_en $end
$var wire 1 ' i_waddr [31] $end
$var wire 1 ( i_waddr [30] $end
$var wire 1 ) i_waddr [29] $end
$var wire 1 * i_waddr [28] $end
$var wire 1 + i_waddr [27] $end
$var wire 1 , i_waddr [26] $end
$var wire 1 - i_waddr [25] $end
$var wire 1 . i_waddr [24] $end
$var wire 1 / i_waddr [23] $end
$var wire 1 0 i_waddr [22] $end
$var wire 1 1 i_waddr [21] $end
$var wire 1 2 i_waddr [20] $end
$var wire 1 3 i_waddr [19] $end
$var wire 1 4 i_waddr [18] $end
$var wire 1 5 i_waddr [17] $end
$var wire 1 6 i_waddr [16] $end
$var wire 1 7 i_waddr [15] $end
$var wire 1 8 i_waddr [14] $end
$var wire 1 9 i_waddr [13] $end
$var wire 1 : i_waddr [12] $end
$var wire 1 ; i_waddr [11] $end
$var wire 1 < i_waddr [10] $end
$var wire 1 = i_waddr [9] $end
$var wire 1 > i_waddr [8] $end
$var wire 1 ? i_waddr [7] $end
$var wire 1 @ i_waddr [6] $end
$var wire 1 A i_waddr [5] $end
$var wire 1 B i_waddr [4] $end
$var wire 1 C i_waddr [3] $end
$var wire 1 D i_waddr [2] $end
$var wire 1 E i_waddr [1] $end
$var wire 1 F i_waddr [0] $end
$var wire 1 G i_raddr [31] $end
$var wire 1 H i_raddr [30] $end
$var wire 1 I i_raddr [29] $end
$var wire 1 J i_raddr [28] $end
$var wire 1 K i_raddr [27] $end
$var wire 1 L i_raddr [26] $end
$var wire 1 M i_raddr [25] $end
$var wire 1 N i_raddr [24] $end
$var wire 1 O i_raddr [23] $end
$var wire 1 P i_raddr [22] $end
$var wire 1 Q i_raddr [21] $end
$var wire 1 R i_raddr [20] $end
$var wire 1 S i_raddr [19] $end
$var wire 1 T i_raddr [18] $end
$var wire 1 U i_raddr [17] $end
$var wire 1 V i_raddr [16] $end
$var wire 1 W i_raddr [15] $end
$var wire 1 X i_raddr [14] $end
$var wire 1 Y i_raddr [13] $end
$var wire 1 Z i_raddr [12] $end
$var wire 1 [ i_raddr [11] $end
$var wire 1 \ i_raddr [10] $end
$var wire 1 ] i_raddr [9] $end
$var wire 1 ^ i_raddr [8] $end
$var wire 1 _ i_raddr [7] $end
$var wire 1 ` i_raddr [6] $end
$var wire 1 a i_raddr [5] $end
$var wire 1 b i_raddr [4] $end
$var wire 1 c i_raddr [3] $end
$var wire 1 d i_raddr [2] $end
$var wire 1 e i_raddr [1] $end
$var wire 1 f i_raddr [0] $end
$var wire 1 g i_wdata [31] $end
$var wire 1 h i_wdata [30] $end
$var wire 1 i i_wdata [29] $end
$var wire 1 j i_wdata [28] $end
$var wire 1 k i_wdata [27] $end
$var wire 1 l i_wdata [26] $end
$var wire 1 m i_wdata [25] $end
$var wire 1 n i_wdata [24] $end
$var wire 1 o i_wdata [23] $end
$var wire 1 p i_wdata [22] $end
$var wire 1 q i_wdata [21] $end
$var wire 1 r i_wdata [20] $end
$var wire 1 s i_wdata [19] $end
$var wire 1 t i_wdata [18] $end
$var wire 1 u i_wdata [17] $end
$var wire 1 v i_wdata [16] $end
$var wire 1 w i_wdata [15] $end
$var wire 1 x i_wdata [14] $end
$var wire 1 y i_wdata [13] $end
$var wire 1 z i_wdata [12] $end
$var wire 1 { i_wdata [11] $end
$var wire 1 | i_wdata [10] $end
$var wire 1 } i_wdata [9] $end
$var wire 1 ~ i_wdata [8] $end
$var wire 1 !! i_wdata [7] $end
$var wire 1 "! i_wdata [6] $end
$var wire 1 #! i_wdata [5] $end
$var wire 1 $! i_wdata [4] $end
$var wire 1 %! i_wdata [3] $end
$var wire 1 &! i_wdata [2] $end
$var wire 1 '! i_wdata [1] $end
$var wire 1 (! i_wdata [0] $end
$var wire 1 )! i_wstrobe [3] $end
$var wire 1 *! i_wstrobe [2] $end
$var wire 1 +! i_wstrobe [1] $end
$var wire 1 ,! i_wstrobe [0] $end
$var reg 32 -! o_rdata [31:0] $end
$var reg 1 .! o_wready $end
$var reg 1 /! o_rvalid $end
$var reg 32 0! control_reg [31:0] $end
$var reg 32 1! intr_sts_reg [31:0] $end
$var reg 32 2! intr_msk_reg [31:0] $end
$var reg 32 3! debug_reg [31:0] $end
$upscope $end

$scope module DUT1 $end
$var wire 1 4! clk $end
$var wire 1 5! reset_n $end
$var wire 1 6! i_wr_en $end
$var wire 1 7! i_rd_en $end
$var wire 1 8! i_waddr [31] $end
$var wire 1 9! i_waddr [30] $end
$var wire 1 :! i_waddr [29] $end
$var wire 1 ;! i_waddr [28] $end
$var wire 1 <! i_waddr [27] $end
$var wire 1 =! i_waddr [26] $end
$var wire 1 >! i_waddr [25] $end
$var wire 1 ?! i_waddr [24] $end
$var wire 1 @! i_waddr [23] $end
$var wire 1 A! i_waddr [22] $end
$var wire 1 B! i_waddr [21] $end
$var wire 1 C! i_waddr [20] $end
$var wire 1 D! i_waddr [19] $end
$var wire 1 E! i_waddr [18] $end
$var wire 1 F! i_waddr [17] $end
$var wire 1 G! i_waddr [16] $end
$var wire 1 H! i_waddr [15] $end
$var wire 1 I! i_waddr [14] $end
$var wire 1 J! i_waddr [13] $end
$var wire 1 K! i_waddr [12] $end
$var wire 1 L! i_waddr [11] $end
$var wire 1 M! i_waddr [10] $end
$var wire 1 N! i_waddr [9] $end
$var wire 1 O! i_waddr [8] $end
$var wire 1 P! i_waddr [7] $end
$var wire 1 Q! i_waddr [6] $end
$var wire 1 R! i_waddr [5] $end
$var wire 1 S! i_waddr [4] $end
$var wire 1 T! i_waddr [3] $end
$var wire 1 U! i_waddr [2] $end
$var wire 1 V! i_waddr [1] $end
$var wire 1 W! i_waddr [0] $end
$var wire 1 X! i_raddr [31] $end
$var wire 1 Y! i_raddr [30] $end
$var wire 1 Z! i_raddr [29] $end
$var wire 1 [! i_raddr [28] $end
$var wire 1 \! i_raddr [27] $end
$var wire 1 ]! i_raddr [26] $end
$var wire 1 ^! i_raddr [25] $end
$var wire 1 _! i_raddr [24] $end
$var wire 1 `! i_raddr [23] $end
$var wire 1 a! i_raddr [22] $end
$var wire 1 b! i_raddr [21] $end
$var wire 1 c! i_raddr [20] $end
$var wire 1 d! i_raddr [19] $end
$var wire 1 e! i_raddr [18] $end
$var wire 1 f! i_raddr [17] $end
$var wire 1 g! i_raddr [16] $end
$var wire 1 h! i_raddr [15] $end
$var wire 1 i! i_raddr [14] $end
$var wire 1 j! i_raddr [13] $end
$var wire 1 k! i_raddr [12] $end
$var wire 1 l! i_raddr [11] $end
$var wire 1 m! i_raddr [10] $end
$var wire 1 n! i_raddr [9] $end
$var wire 1 o! i_raddr [8] $end
$var wire 1 p! i_raddr [7] $end
$var wire 1 q! i_raddr [6] $end
$var wire 1 r! i_raddr [5] $end
$var wire 1 s! i_raddr [4] $end
$var wire 1 t! i_raddr [3] $end
$var wire 1 u! i_raddr [2] $end
$var wire 1 v! i_raddr [1] $end
$var wire 1 w! i_raddr [0] $end
$var wire 1 x! i_wdata [31] $end
$var wire 1 y! i_wdata [30] $end
$var wire 1 z! i_wdata [29] $end
$var wire 1 {! i_wdata [28] $end
$var wire 1 |! i_wdata [27] $end
$var wire 1 }! i_wdata [26] $end
$var wire 1 ~! i_wdata [25] $end
$var wire 1 !" i_wdata [24] $end
$var wire 1 "" i_wdata [23] $end
$var wire 1 #" i_wdata [22] $end
$var wire 1 $" i_wdata [21] $end
$var wire 1 %" i_wdata [20] $end
$var wire 1 &" i_wdata [19] $end
$var wire 1 '" i_wdata [18] $end
$var wire 1 (" i_wdata [17] $end
$var wire 1 )" i_wdata [16] $end
$var wire 1 *" i_wdata [15] $end
$var wire 1 +" i_wdata [14] $end
$var wire 1 ," i_wdata [13] $end
$var wire 1 -" i_wdata [12] $end
$var wire 1 ." i_wdata [11] $end
$var wire 1 /" i_wdata [10] $end
$var wire 1 0" i_wdata [9] $end
$var wire 1 1" i_wdata [8] $end
$var wire 1 2" i_wdata [7] $end
$var wire 1 3" i_wdata [6] $end
$var wire 1 4" i_wdata [5] $end
$var wire 1 5" i_wdata [4] $end
$var wire 1 6" i_wdata [3] $end
$var wire 1 7" i_wdata [2] $end
$var wire 1 8" i_wdata [1] $end
$var wire 1 9" i_wdata [0] $end
$var wire 1 :" i_wstrobe [3] $end
$var wire 1 ;" i_wstrobe [2] $end
$var wire 1 <" i_wstrobe [1] $end
$var wire 1 =" i_wstrobe [0] $end
$var reg 32 >" o_rdata [31:0] $end
$var reg 1 ?" o_wready $end
$var reg 1 @" o_rvalid $end
$var reg 32 A" control_reg [31:0] $end
$var reg 32 B" intr_sts_reg [31:0] $end
$var reg 32 C" intr_msk_reg [31:0] $end
$var reg 32 D" debug_reg [31:0] $end
$upscope $end
$upscope $end
$enddefinitions $end
#0
$dumpvars
0!
0"
bx -!
x.!
x/!
bx 0!
bx 1!
bx 2!
bx 3!
bx >"
x?"
x@"
bx A"
bx B"
bx C"
bx D"
x="
x<"
x;"
x:"
x9"
x8"
x7"
x6"
x5"
x4"
x3"
x2"
x1"
x0"
x/"
x."
x-"
x,"
x+"
x*"
x)"
x("
x'"
x&"
x%"
x$"
x#"
x""
x!"
x~!
x}!
x|!
x{!
xz!
xy!
xx!
xw!
xv!
xu!
xt!
xs!
xr!
xq!
xp!
xo!
xn!
xm!
xl!
xk!
xj!
xi!
xh!
xg!
xf!
xe!
xd!
xc!
xb!
xa!
x`!
x_!
x^!
x]!
x\!
x[!
xZ!
xY!
xX!
xW!
xV!
xU!
xT!
xS!
xR!
xQ!
xP!
xO!
xN!
xM!
xL!
xK!
xJ!
xI!
xH!
xG!
xF!
xE!
xD!
xC!
xB!
xA!
x@!
x?!
x>!
x=!
x<!
x;!
x:!
x9!
x8!
x7!
x6!
x,!
x+!
x*!
x)!
x(!
x'!
x&!
x%!
x$!
x#!
x"!
x!!
x~
x}
x|
x{
xz
xy
xx
xw
xv
xu
xt
xs
xr
xq
xp
xo
xn
xm
xl
xk
xj
xi
xh
xg
xf
xe
xd
xc
xb
xa
x`
x_
x^
x]
x\
x[
xZ
xY
xX
xW
xV
xU
xT
xS
xR
xQ
xP
xO
xN
xM
xL
xK
xJ
xI
xH
xG
xF
xE
xD
xC
xB
xA
x@
x?
x>
x=
x<
x;
x:
x9
x8
x7
x6
x5
x4
x3
x2
x1
x0
x/
x.
x-
x,
x+
x*
x)
x(
x'
x&
x%
05!
04!
0$
0#
$end
#2
1!
1#
14!
b0 A"
b0 B"
b0 C"
b0 D"
0@"
b0 0!
b0 1!
b0 2!
b0 3!
0/!
0.!
0?"
0&
1%
1(!
0'!
0&!
0%!
1$!
0#!
0"!
0!!
1~
0}
0|
0{
1z
0y
0x
0w
1v
0u
0t
0s
1r
0q
0p
0o
1n
0m
0l
0k
1j
0i
0h
0g
0F
0E
0D
0C
0B
0A
0@
0?
0>
0=
0<
0;
0:
09
08
07
06
05
04
03
02
01
00
0/
0.
0-
0,
0+
0*
0)
0(
0'
#4
0!
0#
04!
#5
1"
1$
15!
#6
1!
1#
14!
b10001000100010001000100010001 0!
1.!
#8
0!
0#
04!
#10
1!
1#
14!
0.!
0(!
1'!
0$!
1#!
0~
1}
0z
1y
0v
1u
0r
1q
0n
1m
0j
1i
1D
#12
0!
0#
04!
#14
1!
1#
14!
b100010001000100010001000100010 1!
1.!
1(!
1$!
1~
1z
1v
1r
1n
1j
0D
1C
#16
0!
0#
04!
#18
1!
1#
14!
0.!
0(!
0'!
1&!
0$!
0#!
1"!
0~
0}
1|
0z
0y
1x
0v
0u
1t
0r
0q
1p
0n
0m
1l
0j
0i
1h
1D
#20
0!
0#
04!
#22
1!
1#
14!
b1000100010001000100010001000100 3!
1.!
07!
16!
19"
08"
07"
06"
15"
04"
03"
02"
11"
00"
0/"
0."
1-"
0,"
0+"
0*"
1)"
0("
0'"
0&"
1%"
0$"
0#"
0""
1!"
0~!
0}!
0|!
1{!
1z!
0y!
1x!
0W!
0V!
0U!
0T!
0S!
0R!
0Q!
0P!
0O!
0N!
0M!
0L!
0K!
0J!
0I!
0H!
0G!
0F!
0E!
0D!
0C!
0B!
0A!
0@!
0?!
0>!
0=!
0<!
0;!
0:!
09!
08!
#24
0!
0#
04!
#26
1!
1#
14!
0.!
b10110001000100010001000100010001 A"
1?"
#28
0!
0#
04!
#30
1!
1#
14!
1.!
0?"
09"
18"
05"
14"
01"
10"
0-"
1,"
0)"
1("
0%"
1$"
0!"
1~!
1U!
#32
0!
0#
04!
#34
1!
1#
14!
0.!
b10110010001000100010001000100010 B"
1?"
19"
15"
11"
1-"
1)"
1%"
1!"
0U!
1T!
#36
0!
0#
04!
#38
1!
1#
14!
1.!
0?"
09"
08"
17"
05"
04"
13"
01"
00"
1/"
0-"
0,"
1+"
0)"
0("
1'"
0%"
0$"
1#"
0!"
0~!
1}!
1U!
#40
0!
0#
04!
#42
1!
1#
14!
0.!
b10110100010001000100010001000100 D"
1?"
#44
0!
0#
04!
#46
1!
1#
14!
1.!
0?"
#48
0!
0#
04!
#50
1!
1#
14!
0.!
1?"
#52
0!
0#
04!
#54
1!
1#
14!
1.!
0?"
#56
0!
0#
04!
#58
1!
1#
14!
0.!
1?"
#60
0!
0#
04!
#62
1!
1#
14!
1.!
0?"
#64
0!
0#
04!
#66
1!
1#
14!
0.!
1?"
#68
0!
0#
04!
#70
1!
1#
14!
1.!
0?"
#72
0!
0#
04!
#74
1!
1#
14!
0.!
1?"
#76
0!
0#
04!
#78
1!
1#
14!
1.!
0?"
#80
0!
0#
04!
#82
1!
1#
14!
0.!
1?"
#84
0!
0#
04!
#86
1!
1#
14!
1.!
0?"
#88
0!
0#
04!
#90
1!
1#
14!
0.!
1?"
#92
0!
0#
04!
#94
1!
1#
14!
1.!
0?"
#96
0!
0#
04!
#98
1!
1#
14!
0.!
1?"
#100
0!
0#
04!
#102
1!
1#
14!
1.!
0?"
#104
0!
0#
04!
#106
1!
1#
14!
0.!
1?"
#108
0!
0#
04!
#110
1!
1#
14!
1.!
0?"
#112
0!
0#
04!
#114
1!
1#
14!
0.!
1?"
#116
0!
0#
04!
#118
1!
1#
14!
1.!
0?"
#120
0!
0#
04!
#122
1!
1#
14!
0.!
1?"
#124
0!
0#
04!
#126
1!
1#
14!
1.!
0?"
#128
0!
0#
04!
#130
1!
1#
14!
0.!
1?"
#132
0!
0#
04!
#134
1!
1#
14!
1.!
0?"
#136
0!
0#
04!
#138
1!
1#
14!
0.!
1?"
#140
0!
0#
04!
#142
1!
1#
14!
1.!
0?"
#144
0!
0#
04!
#146
1!
1#
14!
0.!
1?"
#148
0!
0#
04!
#150
1!
1#
14!
1.!
0?"
#152
0!
0#
04!
#154
1!
1#
14!
0.!
1?"
#156
0!
0#
04!
#158
1!
1#
14!
1.!
0?"
#160
0!
0#
04!
#162
1!
1#
14!
0.!
1?"
#164
0!
0#
04!
#166
1!
1#
14!
1.!
0?"
#168
0!
0#
04!
#170
1!
1#
14!
0.!
1?"
#172
0!
0#
04!
#174
1!
1#
14!
1.!
0?"
#176
0!
0#
04!
#178
1!
1#
14!
0.!
1?"
#180
0!
0#
04!
#182
1!
1#
14!
1.!
0?"
#184
0!
0#
04!
#186
1!
1#
14!
0.!
1?"
#188
0!
0#
04!
#190
1!
1#
14!
1.!
0?"
#192
0!
0#
04!
#194
1!
1#
14!
0.!
1?"
#196
0!
0#
04!
#198
1!
1#
14!
1.!
0?"
#200
0!
0#
04!
#202
1!
1#
14!
0.!
1?"
#204
0!
0#
04!
#206
1!
1#
14!
1.!
0?"
#208
0!
0#
04!
#210
1!
1#
14!
0.!
1?"
#212
0!
0#
04!
#214
1!
1#
14!
1.!
0?"
#216
0!
0#
04!
#218
1!
1#
14!
0.!
1?"
#220
0!
0#
04!
#222
1!
1#
14!
1.!
0?"
#224
0!
0#
04!
#226
1!
1#
14!
0.!
1?"
#228
0!
0#
04!
#230
1!
1#
14!
1.!
0?"
#232
0!
0#
04!
#234
1!
1#
14!
0.!
1?"
#236
0!
0#
04!
#238
1!
1#
14!
1.!
0?"
#240
0!
0#
04!
#242
1!
1#
14!
0.!
1?"
#244
0!
0#
04!
#246
1!
1#
14!
1.!
0?"
#248
0!
0#
04!
#250
1!
1#
14!
0.!
1?"
#252
0!
0#
04!
#254
1!
1#
14!
1.!
0?"
#256
0!
0#
04!
#258
1!
1#
14!
0.!
1?"
#260
0!
0#
04!
#262
1!
1#
14!
1.!
0?"
#264
0!
0#
04!
#266
1!
1#
14!
0.!
1?"
#268
0!
0#
04!
#270
1!
1#
14!
1.!
0?"
#272
0!
0#
04!
#274
1!
1#
14!
0.!
1?"
#276
0!
0#
04!
#278
1!
1#
14!
1.!
0?"
#280
0!
0#
04!
#282
1!
1#
14!
0.!
1?"
#284
0!
0#
04!
#286
1!
1#
14!
1.!
0?"
#288
0!
0#
04!
#290
1!
1#
14!
0.!
1?"
#292
0!
0#
04!
#294
1!
1#
14!
1.!
0?"
#296
0!
0#
04!
#298
1!
1#
14!
0.!
1?"
#300
0!
0#
04!
#302
1!
1#
14!
1.!
0?"
#304
0!
0#
04!
#306
1!
1#
14!
0.!
1?"
#308
0!
0#
04!
#310
1!
1#
14!
1.!
0?"
#312
0!
0#
04!
#314
1!
1#
14!
0.!
1?"
#316
0!
0#
04!
#318
1!
1#
14!
1.!
0?"
#320
0!
0#
04!
#322
1!
1#
14!
0.!
1?"
#324
0!
0#
04!
#326
1!
1#
14!
1.!
0?"
#328
0!
0#
04!
#330
1!
1#
14!
0.!
1?"
#332
0!
0#
04!
#334
1!
1#
14!
1.!
0?"
#336
0!
0#
04!
#338
1!
1#
14!
0.!
1?"
#340
0!
0#
04!
#342
1!
1#
14!
1.!
0?"
#344
0!
0#
04!
#346
1!
1#
14!
0.!
1?"
#348
0!
0#
04!
#350
1!
1#
14!
1.!
0?"
#352
0!
0#
04!
#354
1!
1#
14!
0.!
1?"
#356
0!
0#
04!
#358
1!
1#
14!
1.!
0?"
#360
0!
0#
04!
#362
1!
1#
14!
0.!
1?"
#364
0!
0#
04!
#366
1!
1#
14!
1.!
0?"
